<?xml version="1.0" encoding="utf-8"?>
<!-- Generator: Adobe Illustrator 22.1.0, SVG Export Plug-In . SVG Version: 6.00 Build 0)  -->
<svg version="1.1" id="Layer_1" xmlns="http://www.w3.org/2000/svg" xmlns:xlink="http://www.w3.org/1999/xlink" x="0px" y="0px"
	 viewBox="0 0 150.5 123.3" style="enable-background:new 0 0 150.5 123.3;" xml:space="preserve">
<style type="text/css">
	.st0{fill:#FFFFFF;}
	.st1{fill:#CA602B;}
	.st2{fill:#FFFFFF;}
	.st3{fill:#4D374D;}
	.st4{fill:#B7ADA4;}
</style>
<path class="st0" d="M148.9,100.4l-4.4-5.7h-1.3v8.3h1.4v-5.9l4.6,5.9h1.2v-8.3h-1.4V100.4z M140.1,98.9c0,1.6-1.1,2.9-2.8,2.9
	s-2.8-1.3-2.8-2.9s1.1-2.9,2.8-2.9C139,95.9,140.1,97.3,140.1,98.9 M141.6,98.8c0-2.3-1.8-4.3-4.3-4.3c-2.5,0-4.3,1.9-4.3,4.3
	c0,2.3,1.8,4.3,4.3,4.3C139.8,103.1,141.6,101.2,141.6,98.8 M129.9,103h1.5v-8.3h-1.5V103z M125.7,96.1h2.6v-1.3h-6.7v1.3h2.6v6.9
	h1.5V96.1z M119,99.7h-2.8l1.4-3.3L119,99.7z M118.2,94.7h-1.3l-3.6,8.3h1.5l0.8-2h3.9l0.8,2h1.5L118.2,94.7z M110.3,103h1.5v-8.3
	h-1.5V103z M108.7,101.7l-0.9-0.9c-0.7,0.7-1.4,1.1-2.4,1.1c-1.6,0-2.7-1.3-2.7-2.9s1.1-2.9,2.7-2.9c0.9,0,1.7,0.4,2.3,1l0.9-1.1
	c-0.8-0.8-1.7-1.3-3.2-1.3c-2.5,0-4.3,1.9-4.3,4.3c0,2.4,1.8,4.3,4.2,4.3C106.9,103.1,107.8,102.6,108.7,101.7 M98.4,98.9
	c0,1.6-1.1,2.9-2.8,2.9c-1.6,0-2.8-1.3-2.8-2.9s1.1-2.9,2.8-2.9S98.4,97.3,98.4,98.9 M99.9,98.8c0-2.3-1.8-4.3-4.3-4.3
	c-2.5,0-4.3,1.9-4.3,4.3c0,2.3,1.8,4.3,4.3,4.3C98.1,103.1,99.9,101.2,99.9,98.8 M85.4,96.9c0-0.6,0.5-1,1.3-1
	c0.8,0,1.5,0.3,2.2,0.9l0.8-1.1c-0.8-0.7-1.8-1-3-1c-1.6,0-2.8,1-2.8,2.4c0,1.5,1,2.1,2.7,2.5c1.5,0.4,1.9,0.7,1.9,1.3
	c0,0.6-0.6,1.1-1.5,1.1c-1,0-1.8-0.4-2.6-1.1l-0.9,1c1,0.9,2.2,1.3,3.4,1.3c1.7,0,2.9-0.9,2.9-2.5c0-1.4-0.9-2-2.7-2.4
	C85.8,97.8,85.4,97.5,85.4,96.9 M78,96.9c0-0.6,0.5-1,1.3-1c0.8,0,1.5,0.3,2.2,0.9l0.8-1.1c-0.8-0.7-1.8-1-3-1c-1.6,0-2.8,1-2.8,2.4
	c0,1.5,1,2.1,2.7,2.5c1.5,0.4,1.9,0.7,1.9,1.3c0,0.6-0.6,1.1-1.5,1.1c-1,0-1.8-0.4-2.6-1.1l-0.9,1c1,0.9,2.2,1.3,3.4,1.3
	c1.7,0,3-0.9,3-2.5c0-1.4-0.9-2-2.7-2.4C78.3,97.8,78,97.5,78,96.9 M72.5,99.7h-2.8l1.4-3.3L72.5,99.7z M71.8,94.7h-1.3l-3.6,8.3
	h1.5l0.8-2h3.9l0.8,2h1.5L71.8,94.7z M56.7,103h5.8v-1.3h-4.3v-6.9h-1.5V103z M52.4,99.7h-2.8l1.4-3.3L52.4,99.7z M51.6,94.7h-1.3
	l-3.6,8.3h1.5l0.8-2h3.9l0.8,2h1.5L51.6,94.7z M43.8,100.4l-4.4-5.7h-1.3v8.3h1.4v-5.9L44,103h1.2v-8.3h-1.4V100.4z M34.9,98.9
	c0,1.6-1.1,2.9-2.8,2.9s-2.8-1.3-2.8-2.9s1.1-2.9,2.8-2.9C33.7,95.9,34.9,97.3,34.9,98.9 M36.4,98.8c0-2.3-1.8-4.3-4.3-4.3
	c-2.5,0-4.3,1.9-4.3,4.3c0,2.3,1.8,4.3,4.3,4.3S36.4,101.2,36.4,98.8 M24.7,103h1.5v-8.3h-1.5V103z M20.5,96.1h2.6v-1.3h-6.7v1.3H19
	v6.9h1.5V96.1z M14.1,99.7h-2.8l1.4-3.3L14.1,99.7z M13.4,94.7H12L8.4,103h1.5l0.8-2h3.9l0.8,2H17L13.4,94.7z M5.8,100.4l-4.4-5.7H0
	v8.3h1.4v-5.9L6,103h1.2v-8.3H5.8V100.4z"/>
<path class="st0" d="M147.4,119.1c0-0.4,0.3-0.7,0.9-0.7c0.5,0,1,0.2,1.5,0.6l0.5-0.7c-0.6-0.5-1.2-0.7-2-0.7
	c-1.1,0-1.9,0.7-1.9,1.6c0,1,0.7,1.4,1.9,1.7c1,0.2,1.3,0.5,1.3,0.9c0,0.4-0.4,0.7-1,0.7c-0.7,0-1.2-0.3-1.8-0.7l-0.6,0.7
	c0.7,0.6,1.5,0.9,2.3,0.9c1.2,0,2-0.6,2-1.7c0-0.9-0.6-1.4-1.8-1.7C147.6,119.7,147.4,119.5,147.4,119.1 M144.5,119.5
	c0,0.6-0.4,0.9-1.2,0.9h-1.4v-1.9h1.4C144,118.5,144.5,118.8,144.5,119.5 M145.7,123.2l-1.5-2.1c0.8-0.2,1.3-0.8,1.3-1.7
	c0-1.1-0.8-1.8-2.1-1.8h-2.5v5.6h1v-2h1.2l1.4,2H145.7z M139.7,117.6h-4.2v5.6h4.2v-0.9h-3.2v-1.5h2.8V120h-2.8v-1.5h3.2V117.6z
	 M133.4,120.4c0,1.1-0.8,1.9-1.9,1.9h-1.1v-3.8h1.1C132.7,118.5,133.4,119.3,133.4,120.4 M134.5,120.4c0-1.6-1.2-2.8-3-2.8h-2.1v5.6
	h2.1C133.3,123.2,134.5,122,134.5,120.4 M126.9,123.2h1v-5.6h-1V123.2z M123.2,121.9l-1.7-4.3h-1.1l2.3,5.7h0.9l2.3-5.7h-1.1
	L123.2,121.9z M119.2,120.4c0,1.1-0.8,2-1.9,2c-1.1,0-1.9-0.9-1.9-2c0-1.1,0.8-2,1.9-2C118.4,118.4,119.2,119.3,119.2,120.4
	 M120.2,120.4c0-1.6-1.2-2.9-2.9-2.9c-1.7,0-2.9,1.3-2.9,2.9c0,1.6,1.2,2.9,2.9,2.9C119,123.3,120.2,122,120.2,120.4 M112.5,119.5
	c0,0.6-0.4,0.9-1.2,0.9h-1.4v-1.9h1.4C112.1,118.5,112.5,118.8,112.5,119.5 M113.7,123.2l-1.5-2.1c0.8-0.2,1.3-0.8,1.3-1.7
	c0-1.1-0.8-1.8-2.1-1.8H109v5.6h1v-2h1.2l1.4,2H113.7z M106.9,119.5c0,0.6-0.5,1-1.2,1h-1.1v-2h1.1
	C106.5,118.5,106.9,118.9,106.9,119.5 M107.9,119.5c0-1.1-0.8-1.9-2.1-1.9h-2.2v5.6h1v-1.8h1.1C106.9,121.4,107.9,120.8,107.9,119.5
	 M98.4,118.5h1.8v-0.9h-4.6v0.9h1.8v4.7h1V118.5z M93.6,121.5l-3-3.9h-0.9v5.6h1v-4l3.1,4h0.8v-5.6h-1V121.5z M88.4,117.6h-4.2v5.6
	h4.2v-0.9h-3.2v-1.5h2.8V120h-2.8v-1.5h3.2V117.6z M81.8,119.2v4h1v-5.6h-1.1l-1.7,2.7l-1.7-2.7h-1.1v5.6h1v-4l1.8,2.6h0L81.8,119.2
	z M74.6,118.5h1.8v-0.9h-4.6v0.9h1.8v4.7h1V118.5z M70.1,121h-1.9l1-2.2L70.1,121z M69.6,117.6h-0.9l-2.5,5.7h1l0.6-1.4h2.7l0.6,1.4
	h1L69.6,117.6z M65.4,117.6h-4.2v5.6h4.2v-0.9h-3.2v-1.5h2.8V120h-2.8v-1.5h3.2V117.6z M59.1,119.5c0,0.6-0.4,0.9-1.2,0.9h-1.4v-1.9
	h1.4C58.6,118.5,59.1,118.8,59.1,119.5 M60.2,123.2l-1.5-2.1c0.8-0.2,1.3-0.8,1.3-1.7c0-1.1-0.8-1.8-2.1-1.8h-2.5v5.6h1v-2h1.2
	l1.4,2H60.2z M52.8,118.5h1.8v-0.9H50v0.9h1.8v4.7h1V118.5z M45.6,121.5l-3-3.9h-0.9v5.6h1v-4l3.1,4h0.8v-5.6h-1V121.5z M39.6,120.4
	c0,1.1-0.8,2-1.9,2c-1.1,0-1.9-0.9-1.9-2c0-1.1,0.8-2,1.9-2C38.8,118.4,39.6,119.3,39.6,120.4 M40.6,120.4c0-1.6-1.2-2.9-2.9-2.9
	c-1.7,0-2.9,1.3-2.9,2.9c0,1.6,1.2,2.9,2.9,2.9C39.4,123.3,40.6,122,40.6,120.4 M32.7,123.2h1v-5.6h-1V123.2z M29.9,118.5h1.8v-0.9
	h-4.6v0.9h1.8v4.7h1V118.5z M26.6,122.3l-0.6-0.6c-0.5,0.4-0.9,0.7-1.6,0.7c-1.1,0-1.9-0.9-1.9-2c0-1.1,0.8-2,1.9-2
	c0.6,0,1.1,0.3,1.6,0.7l0.6-0.7c-0.5-0.5-1.2-0.9-2.2-0.9c-1.7,0-2.9,1.3-2.9,2.9c0,1.6,1.2,2.9,2.9,2.9
	C25.4,123.3,26.1,123,26.6,122.3 M19.3,123.2h1v-5.6h-1V123.2z M17,120.4c0,1.1-0.8,1.9-1.9,1.9h-1.1v-3.8H15
	C16.2,118.5,17,119.3,17,120.4 M18,120.4c0-1.6-1.2-2.8-3-2.8h-2.1v5.6H15C16.8,123.2,18,122,18,120.4 M10.7,120.4
	c0,1.1-0.8,1.9-1.9,1.9H7.6v-3.8h1.1C9.9,118.5,10.7,119.3,10.7,120.4 M11.7,120.4c0-1.6-1.2-2.8-3-2.8H6.7v5.6h2.1
	C10.5,123.2,11.7,122,11.7,120.4 M3.9,121H2l1-2.2L3.9,121z M3.4,117.6H2.5L0,123.2h1l0.6-1.4h2.7l0.6,1.4h1L3.4,117.6z"/>
<path class="st0" d="M80.2,107.5h-3.7v5h0.9v-2h2.5v-0.8h-2.5v-1.4h2.9V107.5z M74.5,110c0,1-0.7,1.8-1.7,1.8s-1.7-0.8-1.7-1.8
	c0-1,0.7-1.8,1.7-1.8C73.8,108.2,74.5,109,74.5,110 M75.4,110c0-1.4-1.1-2.6-2.6-2.6c-1.5,0-2.6,1.2-2.6,2.6c0,1.4,1.1,2.6,2.6,2.6
	C74.3,112.6,75.4,111.4,75.4,110"/>
<rect x="83.8" y="109.6" class="st0" width="66.7" height="0.8"/>
<rect x="0" y="109.6" class="st0" width="66.7" height="0.8"/>
<polygon class="st2" points="75.3,22.8 50.9,37.2 50.9,65.8 75.3,80.2 99.6,65.8 99.6,37.2 "/>
<polygon class="st3" points="88.5,58.4 98.2,64.1 98.2,52.8 "/>
<polygon class="st3" points="98.2,50.2 98.2,38.9 88.5,44.6 "/>
<polygon class="st4" points="97.4,37.6 87.7,31.9 87.7,43.3 "/>
<polygon class="st4" points="85.7,30.7 76,24.9 76,36.4 "/>
<polygon class="st4" points="74.5,24.9 64.9,30.7 74.5,36.3 "/>
<polygon class="st4" points="62.7,43.3 62.7,31.9 53.1,37.6 "/>
<polygon class="st1" points="52.3,52.7 52.3,64.1 62,58.4 "/>
<polygon class="st1" points="62.7,59.7 53,65.4 62.7,71.2 "/>
<polygon class="st1" points="62.7,45.8 53.1,51.5 62.7,57.2 "/>
<polygon class="st1" points="62,44.6 52.3,38.9 52.3,50.3 "/>
<polygon class="st1" points="74.5,66.7 64.8,72.4 74.5,78.1 "/>
<polygon class="st1" points="73.8,65.4 64.2,59.7 64.2,71 "/>
<polygon class="st1" points="74.5,52.8 64.9,58.4 74.5,64.1 "/>
<polygon class="st1" points="73.8,51.5 64.2,45.8 64.2,57.2 "/>
<polygon class="st4" points="64.2,43.3 73.8,37.6 64.2,32 "/>
<polygon class="st4" points="74.5,38.9 64.9,44.6 74.5,50.2 "/>
<polygon class="st3" points="76,78.1 85.7,72.4 76,66.6 "/>
<polygon class="st3" points="86.3,59.7 76.7,65.4 86.3,71 "/>
<polygon class="st3" points="85.6,58.4 76,52.8 76,64.1 "/>
<polygon class="st3" points="86.3,45.9 76.7,51.5 86.3,57.1 "/>
<polygon class="st4" points="76,50.2 85.6,44.6 76,38.9 "/>
<polygon class="st4" points="86.3,32 76.7,37.6 86.3,43.2 "/>
<polygon class="st3" points="87.7,45.8 87.7,57.2 97.5,51.5 "/>
<polygon class="st3" points="87.7,59.7 87.7,71.2 97.5,65.4 "/>
<path class="st0" d="M95.5,7.6c0,0.4,0.3,0.7,0.7,0.7c0.4,0,0.7-0.3,0.7-0.7c0-0.4-0.3-0.7-0.7-0.7C95.8,6.9,95.5,7.2,95.5,7.6
	 M96.2,4.4c0.4,0,0.7-0.3,0.7-0.7S96.6,3,96.2,3c-0.4,0-0.7,0.3-0.7,0.7S95.8,4.4,96.2,4.4 M91.4,8.2h1V5.6c0-1.1,0.5-1.7,1.5-1.7
	c0.2,0,0.3,0,0.5,0.1l0-1.1c-0.1,0-0.3-0.1-0.4-0.1c-0.6,0-1.3,0.4-1.5,0.9h0V3.1h-1V8.2z M86.1,5.2c0-0.7,0.6-1.5,1.6-1.5
	c1,0,1.5,0.6,1.5,1.5H86.1z M90.2,6V5.7c0-1.3-0.7-2.7-2.5-2.7c-1.5,0-2.7,1.2-2.7,2.7c0,1.5,1,2.7,2.7,2.7c1,0,1.7-0.3,2.3-1.1
	l-0.7-0.6c-0.4,0.5-0.8,0.8-1.4,0.8c-0.9,0-1.7-0.6-1.7-1.5H90.2z M81.4,7.4c-1,0-1.7-0.8-1.7-1.8c0-1,0.7-1.8,1.7-1.8
	c1,0,1.7,0.8,1.7,1.8C83.1,6.7,82.4,7.4,81.4,7.4 M78.7,8.2h1V7.5h0c0.4,0.6,1.1,0.9,1.8,0.9c1.6,0,2.6-1.2,2.6-2.7
	c0-1.5-1-2.7-2.6-2.7c-0.7,0-1.4,0.3-1.8,0.9h0V0h-1V8.2z M69.4,8.2h1V5.6c0-1.2,0.6-1.7,1.3-1.7c0.9,0,1.1,0.7,1.1,1.7v2.7h1V5.4
	c0-0.9,0.4-1.6,1.3-1.6c0.9,0,1.1,0.7,1.1,1.5v2.9h1v-3c0-1.2-0.4-2.3-2-2.3c-0.6,0-1.3,0.3-1.6,1c-0.3-0.6-0.8-1-1.6-1
	c-0.9,0-1.6,0.6-1.7,0.9h0V3.1h-0.9V8.2z M64.1,5.2c0-0.7,0.6-1.5,1.6-1.5c1,0,1.5,0.6,1.5,1.5H64.1z M68.3,6V5.7
	c0-1.3-0.7-2.7-2.5-2.7c-1.5,0-2.7,1.2-2.7,2.7c0,1.5,1,2.7,2.7,2.7c1,0,1.7-0.3,2.3-1.1l-0.7-0.6c-0.4,0.5-0.8,0.8-1.4,0.8
	c-0.9,0-1.7-0.6-1.7-1.5H68.3z M53.7,8.2h1V1.9h0l2.6,6.3H58l2.6-6.3h0v6.3h1V0.5h-1.6l-2.4,5.8h0l-2.5-5.8h-1.6V8.2z"/>
</svg>
