<?xml version="1.0" encoding="UTF-8"?>
<svg width="11px" height="17px" viewBox="0 0 11 17" version="1.1" xmlns="http://www.w3.org/2000/svg" xmlns:xlink="http://www.w3.org/1999/xlink">
    <!-- Generator: Sketch 48 (47235) - http://www.bohemiancoding.com/sketch -->
    <title>angle-left - FontAwesome</title>
    <desc>Created with Sketch.</desc>
    <defs></defs>
    <g id="Carousel-Button" stroke="none" stroke-width="1" fill="none" fill-rule="evenodd" transform="translate(-26.000000, -21.000000)">
        <g fill="#171F3F" id="angle-left---FontAwesome">
            <path d="M36.4966643,22.3928373 C36.4966643,22.5267661 36.4296999,22.6774359 36.3292534,22.7778824 L29.7500045,29.3571314 L36.3292534,35.9363803 C36.4296999,36.0368268 36.4966643,36.1874966 36.4966643,36.3214254 C36.4966643,36.4553541 36.4296999,36.6060239 36.3292534,36.7064705 L35.4921988,37.543525 C35.3917523,37.6439716 35.2410824,37.710936 35.1071537,37.710936 C34.973225,37.710936 34.8225552,37.6439716 34.7221086,37.543525 L26.92076,29.7421765 C26.8203135,29.6417299 26.7533491,29.4910601 26.7533491,29.3571314 C26.7533491,29.2232026 26.8203135,29.0725328 26.92076,28.9720863 L34.7221086,21.1707377 C34.8225552,21.0702911 34.973225,21.0033268 35.1071537,21.0033268 C35.2410824,21.0033268 35.3917523,21.0702911 35.4921988,21.1707377 L36.3292534,22.0077922 C36.4296999,22.1082388 36.4966643,22.2421675 36.4966643,22.3928373 Z"></path>
        </g>
    </g>
</svg>